﻿{
  "ExperimentName": "BaseRotates",
  "LevelName": "RotatingArena-scifi",
  "Settings": [{
    "GoalSize": 5.0,
    "GoalOrder": [
      1,
      2,
      0
    ],
    "RotationSpeed": [5],
    "GoalColours": [
      "#8b0000",
      "#ffd700",
      "#105955",
      "#104e8b"
    ],
    "TrainingLength": 4,
    "GoalRadius": 20.0,
    "MarkRadius": 25.0,
    "NumberOfPositions": 12,
    "MarksPositions": [
      0,
      4,
      8,
      2,
      6,
      10
    ],
    "MarksFixations": [
      "room",
      "room",
      "room",
      "platform",
      "platform",
      "platform"
    ],
    "GoalPositions": [
      1,
      3,
      9,
      11
    ],
    "GoalFixations": [
      "room",
      "room",
      "platform",
      "platform"
    ],
    "PointAtFirst": true,
    "GoToGoal": false,
    "AcceptedPointingError": 20.0,
    "TrialTimeLimit": 0,
    "WaitForPulse":false,
    "Messages": {
      "Point": "Ukažte na cíl",
      "PointWrong": "Ukázali jste nepřesně",
      "GoToGoal": "Dojděte do cíle",
      "NewTrial": "Nový úkol můžete začít ze středu",
      "Closed Experiment": "Děkujeme za absolvování experimentu"
    }
  }]
}